1, 13, 84
2, 11, 83
3, 14, 87
4, 21, 97
5, 10, 81
6, 17, 78
7, 19, 78
8, 16, 91
9, 15, 84
10, 20, 92
11, 20, 91
12, 14, 73
13, 18, 90
14, 14, 102
15, 17, 75
16, 20, 95
17, 15, 86
18, 14, 91
19, 16, 98
20, 11, 85
21, 10, 96
22, 17, 86
23, 14, 84
24, 10, 70
25, 12, 102
26, 12, 80
27, 18, 100
28, 18, 98
29, 18, 105
30, 10, 96
31, 20, 80
32, 13, 99
33, 14, 86
34, 15, 84
35, 15, 90
36, 15, 100
37, 12, 67
38, 15, 93
39, 16, 87
40, 15, 85
41, 20, 78
42, 8, 76
43, 19, 99
44, 14, 99
45, 18, 108
46, 9, 94
47, 19, 94
48, 13, 101
49, 11, 80
50, 19, 87
51, 13, 63
52, 16, 103
53, 11, 86
54, 17, 83
55, 14, 106
56, 15, 103
57, 23, 86
58, 12, 101
59, 10, 82
60, 13, 94
61, 10, 70
62, 17, 99
63, 12, 78
64, 10, 105
65, 16, 90
66, 12, 73
67, 17, 87
68, 13, 95
69, 14, 86
70, 14, 94
71, 17, 99
72, 12, 95
73, 17, 89
74, 12, 101
75, 15, 83
76, 13, 102
77, 19, 93
78, 14, 77
79, 18, 95
80, 16, 83
81, 15, 97
82, 14, 114
83, 21, 94
84, 16, 96
85, 20, 99
86, 13, 86
87, 19, 95
88, 19, 90
89, 12, 88
90, 15, 101
91, 19, 107
92, 16, 97
93, 17, 87
94, 10, 88
95, 15, 93
96, 16, 107
97, 11, 87
98, 17, 74
99, 17, 87
100, 11, 74
101, 16, 86
102, 19, 91
103, 11, 88
104, 8, 82
105, 17, 90
106, 11, 94
107, 19, 96
108, 10, 73
109, 18, 84
110, 17, 79
111, 14, 99
112, 10, 84
113, 17, 83
114, 16, 81
115, 12, 78
116, 15, 95
117, 22, 96
118, 23, 100
119, 17, 93
120, 11, 82
121, 15, 100
122, 21, 88
123, 17, 82
124, 9, 85
125, 9, 87
126, 14, 102
127, 13, 94
128, 13, 81
129, 10, 86
130, 15, 95
131, 16, 102
132, 18, 102
133, 17, 94
134, 9, 72
135, 13, 93
136, 19, 94
137, 12, 86
138, 14, 81
139, 10, 72
140, 19, 90
141, 20, 110
142, 11, 88
143, 16, 70
144, 16, 94
145, 16, 82
146, 18, 98
147, 16, 93
148, 14, 99
149, 15, 85
150, 18, 91
151, 11, 86
152, 13, 92
153, 14, 95
154, 15, 110
155, 10, 92
156, 17, 94
157, 12, 85
158, 19, 103
159, 15, 92
160, 11, 91
161, 15, 89
162, 15, 94
163, 21, 89
164, 17, 87
165, 13, 83
166, 14, 77
167, 13, 79
168, 16, 86
169, 14, 86
170, 8, 91
171, 13, 103
172, 10, 109
173, 18, 96
174, 18, 88
175, 15, 100
176, 11, 96
177, 12, 88
178, 13, 100
179, 11, 83
180, 25, 105
181, 16, 90
182, 18, 107
183, 17, 99
184, 12, 92
185, 14, 97
186, 16, 98
187, 13, 92
188, 13, 99
189, 17, 97
190, 11, 88
191, 10, 75
192, 20, 97
193, 16, 93
194, 18, 95
195, 12, 75
196, 14, 88
197, 11, 93
198, 15, 89
199, 10, 86
200, 17, 97
201, 17, 93
202, 17, 103
203, 14, 76
204, 15, 92
205, 11, 75
206, 15, 85
207, 12, 100
208, 15, 98
209, 20, 102
210, 13, 98
211, 17, 105
212, 15, 85
213, 16, 82
214, 14, 78
215, 16, 84
216, 16, 108
217, 12, 83
218, 17, 85
219, 15, 82
220, 16, 96
221, 15, 83
222, 12, 94
223, 12, 79
224, 20, 88
225, 23, 97
226, 16, 94
227, 13, 82
228, 16, 89
229, 21, 88
230, 16, 95
231, 16, 90
232, 16, 88
233, 14, 80
234, 16, 84
235, 16, 99
236, 15, 92
237, 11, 115
238, 13, 88
239, 19, 104
240, 14, 97
241, 18, 89
242, 10, 84
243, 13, 95
244, 12, 87
245, 16, 96
246, 8, 98
247, 18, 92
248, 14, 94
249, 13, 76
250, 14, 72
251, 13, 100
252, 14, 95
253, 19, 107
254, 12, 85
255, 10, 81
256, 13, 90
257, 14, 91
258, 14, 91
259, 15, 84
260, 15, 84
261, 14, 81
262, 16, 82
263, 15, 98
264, 15, 100
265, 15, 102
266, 9, 87
267, 16, 95
268, 11, 92
269, 13, 116
270, 17, 81
271, 16, 89
272, 18, 89
273, 11, 88
274, 21, 96
275, 22, 73
276, 17, 103
277, 19, 83
278, 18, 84
279, 11, 87
280, 17, 95
281, 13, 93
282, 15, 98
283, 14, 90
284, 13, 84
285, 12, 98
286, 17, 101
287, 15, 97
288, 14, 85
289, 22, 77
290, 11, 104
291, 16, 94
292, 20, 91
293, 18, 97
294, 14, 99
295, 13, 94
296, 16, 89
297, 19, 104
298, 19, 80
299, 24, 94
300, 12, 92
301, 12, 91
302, 14, 94
303, 15, 93
304, 13, 83
305, 15, 89
306, 19, 95
307, 15, 89
308, 13, 94
309, 16, 86
310, 12, 85
311, 17, 97
312, 18, 113
313, 9, 78
314, 9, 102
315, 12, 94
316, 15, 81
317, 13, 89
318, 16, 91
319, 15, 78
320, 12, 93
321, 17, 103
322, 17, 84
323, 19, 81
324, 14, 75
325, 12, 110
326, 9, 80
327, 17, 83
328, 12, 97
329, 13, 92
330, 13, 81
331, 13, 95
332, 17, 90
333, 17, 102
334, 16, 91
335, 15, 106
336, 17, 97
337, 16, 94
338, 14, 92
339, 13, 76
340, 11, 87
341, 13, 102
342, 19, 93
343, 15, 96
344, 9, 94
345, 9, 85
346, 14, 91
347, 19, 86
348, 12, 77
349, 21, 95
350, 20, 84
351, 15, 84
352, 12, 69
353, 13, 93
354, 15, 102
355, 16, 96
356, 17, 78
357, 9, 94
358, 13, 93
359, 16, 74
360, 12, 84
361, 19, 85
362, 14, 94
363, 12, 90
364, 16, 93
365, 13, 114
366, 20, 87
367, 16, 88
368, 10, 85
369, 20, 91
370, 18, 98
371, 15, 98
372, 16, 87
373, 11, 98
374, 11, 88
375, 13, 84
376, 16, 94
377, 18, 89
378, 13, 95
379, 16, 99
380, 19, 95
381, 17, 97
382, 15, 75
383, 12, 87
384, 7, 106
385, 21, 80
386, 14, 96
387, 14, 97
388, 15, 71
389, 10, 92
390, 18, 90
391, 11, 100
392, 18, 97
393, 14, 81
394, 13, 94
395, 11, 104
396, 16, 94
397, 18, 96
398, 19, 95
399, 16, 103
400, 15, 98
401, 10, 85
402, 8, 95
403, 13, 96
404, 16, 100
405, 13, 83
406, 14, 73
407, 15, 103
408, 17, 84
409, 15, 80
410, 17, 91
411, 15, 95
412, 19, 89
413, 16, 96
414, 14, 83
415, 17, 105
416, 16, 101
417, 12, 92
418, 23, 100
419, 16, 104
420, 17, 85
421, 17, 92
422, 10, 88
423, 14, 98
424, 16, 110
425, 12, 66
426, 13, 78
427, 13, 102
428, 13, 97
429, 12, 107
430, 13, 105
431, 15, 97
432, 13, 113
433, 16, 88
434, 10, 85
435, 14, 90
436, 15, 96
437, 9, 83
438, 12, 73
439, 18, 58
440, 16, 86
441, 17, 87
442, 12, 82
443, 11, 89
444, 16, 97
445, 21, 94
446, 9, 94
447, 13, 94
448, 19, 89
449, 13, 82
450, 11, 98
451, 18, 81
452, 18, 101
453, 13, 90
454, 18, 95
455, 17, 97
456, 16, 90
457, 16, 81
458, 15, 95
459, 17, 88
460, 20, 85
461, 19, 90
462, 15, 94
463, 14, 89
464, 24, 81
465, 17, 89
466, 17, 89
467, 15, 84
468, 14, 92
469, 13, 91
470, 16, 90
471, 12, 88
472, 15, 65
473, 11, 92
474, 14, 88
475, 14, 81
476, 19, 90
477, 14, 116
478, 20, 97
479, 14, 92
480, 15, 101
481, 16, 97
482, 12, 75
483, 17, 96
484, 18, 93
485, 15, 104
486, 18, 78
487, 11, 81
488, 14, 98
489, 16, 99
490, 16, 88
491, 23, 87
492, 18, 80
493, 17, 80
494, 22, 92
495, 20, 92
496, 10, 73
497, 13, 93
498, 14, 77
499, 18, 92
500, 13, 88
501, 13, 89
502, 16, 95
503, 16, 85
504, 24, 86
505, 14, 96
506, 15, 88
507, 18, 101
508, 17, 89
509, 12, 88
510, 17, 104
511, 16, 98
512, 23, 82
513, 19, 84
514, 14, 92
515, 13, 91
516, 14, 77
517, 19, 90
518, 14, 89
519, 20, 89
520, 14, 105
521, 17, 98
522, 15, 92
523, 17, 98
524, 21, 94
525, 10, 110
526, 14, 83
527, 15, 94
528, 19, 94
529, 14, 93
530, 10, 92
531, 10, 87
532, 17, 80
533, 19, 91
534, 14, 85
535, 17, 87
536, 8, 86
537, 16, 78
538, 14, 86
539, 15, 95
540, 21, 84
541, 10, 83
542, 17, 96
543, 15, 87
544, 14, 110
545, 15, 96
546, 12, 96
547, 11, 93
548, 22, 101
549, 12, 79
550, 14, 100
551, 21, 105
552, 11, 92
553, 15, 104
554, 15, 69
555, 13, 91
556, 12, 97
557, 15, 81
558, 14, 95
559, 17, 99
560, 17, 87
561, 14, 107
562, 19, 99
563, 12, 85
564, 13, 95
565, 12, 100
566, 12, 97
567, 14, 110
568, 14, 92
569, 18, 86
570, 14, 90
571, 13, 81
572, 13, 90
573, 9, 77
574, 9, 90
575, 19, 93
576, 12, 97
577, 17, 86
578, 9, 104
579, 14, 67
580, 17, 84
581, 6, 84
582, 14, 76
583, 17, 80
584, 19, 87
585, 11, 86
586, 21, 91
587, 16, 82
588, 17, 89
589, 13, 80
590, 14, 87
591, 16, 90
592, 15, 92
593, 19, 93
594, 12, 93
595, 13, 87
596, 9, 78
597, 12, 75
598, 15, 80
599, 16, 88
600, 16, 103
601, 14, 88
602, 12, 92
603, 17, 107
604, 11, 90
605, 18, 85
606, 13, 88
607, 15, 88
608, 16, 96
609, 14, 93
610, 15, 92
611, 9, 91
612, 18, 98
613, 17, 85
614, 16, 90
615, 7, 104
616, 14, 93
617, 16, 88
618, 14, 93
619, 17, 81
620, 15, 90
621, 14, 91
622, 12, 90
623, 17, 97
624, 14, 83
625, 14, 106
626, 15, 82
627, 11, 99
628, 15, 83
629, 19, 100
630, 13, 82
631, 14, 96
632, 13, 94
633, 18, 104
634, 7, 101
635, 16, 93
636, 18, 117
637, 16, 93
638, 22, 90
639, 9, 71
640, 15, 96
641, 15, 84
642, 17, 88
643, 13, 86
644, 14, 88
645, 14, 114
646, 20, 85
647, 20, 92
648, 15, 90
649, 12, 81
650, 14, 98
651, 6, 114
652, 13, 84
653, 19, 97
654, 14, 103
655, 13, 87
656, 15, 87
657, 23, 88
658, 15, 85
659, 13, 89
660, 12, 92
661, 15, 105
662, 19, 91
663, 12, 87
664, 14, 92
665, 14, 80
666, 15, 88
667, 15, 88
668, 18, 84
669, 16, 96
670, 21, 95
671, 21, 97
672, 14, 95
673, 13, 78
674, 10, 88
675, 20, 94
676, 11, 79
677, 16, 86
678, 12, 95
679, 14, 98
680, 19, 82
681, 15, 95
682, 19, 95
683, 14, 85
684, 15, 81
685, 16, 87
686, 15, 78
687, 15, 85
688, 12, 99
689, 18, 68
690, 19, 97
691, 18, 85
692, 17, 78
693, 10, 83
694, 13, 91
695, 10, 81
696, 13, 88
697, 15, 84
698, 18, 83
699, 18, 103
700, 16, 83
701, 21, 96
702, 11, 86
703, 18, 92
704, 18, 91
705, 20, 99
706, 17, 85
707, 16, 78
708, 20, 64
709, 14, 93
710, 14, 85
711, 17, 85
712, 12, 95
713, 12, 96
714, 17, 74
715, 14, 77
716, 19, 93
717, 20, 80
718, 19, 85
719, 16, 83
720, 19, 84
721, 12, 109
722, 17, 110
723, 14, 83
724, 16, 86
725, 17, 91
726, 12, 109
727, 9, 98
728, 12, 85
729, 9, 88
730, 16, 90
731, 15, 74
732, 10, 78
733, 15, 84
734, 11, 82
735, 14, 94
736, 12, 95
737, 17, 76
738, 17, 115
739, 18, 113
740, 13, 105
741, 15, 100
742, 14, 76
743, 12, 104
744, 13, 93
745, 19, 101
746, 16, 68
747, 17, 87
748, 11, 105
749, 14, 80
750, 19, 85
751, 19, 78
752, 13, 90
753, 16, 80
754, 18, 87
755, 14, 75
756, 15, 107
757, 19, 82
758, 14, 74
759, 22, 102
760, 20, 80
761, 16, 102
762, 20, 93
763, 16, 85
764, 10, 80
765, 15, 108
766, 11, 88
767, 20, 109
768, 22, 82
769, 14, 103
770, 13, 91
771, 15, 90
772, 17, 89
773, 16, 79
774, 17, 78
775, 14, 85
776, 12, 89
777, 14, 104
778, 6, 94
779, 14, 101
780, 17, 90
781, 21, 96
782, 21, 99
783, 15, 101
784, 16, 92
785, 10, 95
786, 17, 83
787, 14, 82
788, 16, 88
789, 13, 100
790, 19, 90
791, 17, 89
792, 18, 70
793, 10, 81
794, 14, 98
795, 20, 87
796, 14, 86
797, 14, 71
798, 12, 83
799, 15, 96
800, 15, 94
801, 13, 110
802, 10, 93
803, 20, 95
804, 13, 92
805, 18, 84
806, 15, 91
807, 14, 95
808, 16, 88
809, 15, 91
810, 19, 87
811, 15, 84
812, 17, 95
813, 10, 93
814, 14, 81
815, 11, 79
816, 21, 85
817, 15, 89
818, 13, 101
819, 16, 94
820, 18, 102
821, 14, 92
822, 19, 89
823, 23, 90
824, 13, 95
825, 17, 96
826, 12, 87
827, 12, 86
828, 14, 86
829, 14, 95
830, 18, 110
831, 11, 87
832, 15, 95
833, 16, 75
834, 11, 76
835, 12, 86
836, 18, 83
837, 17, 100
838, 14, 109
839, 18, 95
840, 9, 91
841, 14, 79
842, 10, 90
843, 13, 93
844, 10, 102
845, 12, 100
846, 12, 83
847, 15, 81
848, 12, 95
849, 15, 102
850, 13, 94
851, 20, 95
852, 13, 102
853, 15, 88
854, 18, 98
855, 18, 87
856, 13, 94
857, 10, 83
858, 12, 93
859, 14, 83
860, 15, 94
861, 11, 94
862, 17, 86
863, 12, 89
864, 15, 87
865, 14, 74
866, 10, 103
867, 20, 105
868, 13, 91
869, 15, 92
870, 16, 79
871, 15, 83
872, 15, 86
873, 16, 87
874, 16, 85
875, 12, 97
876, 12, 112
877, 16, 71
878, 18, 90
879, 15, 107
880, 9, 79
881, 10, 97
882, 17, 85
883, 9, 91
884, 17, 95
885, 15, 92
886, 10, 88
887, 16, 79
888, 13, 91
889, 13, 94
890, 14, 101
891, 21, 104
892, 15, 80
893, 13, 94
894, 14, 75
895, 21, 100
896, 16, 96
897, 11, 100
898, 12, 96
899, 18, 91
900, 17, 101
901, 11, 102
902, 16, 93
903, 11, 96
904, 10, 66
905, 13, 98
906, 14, 91
907, 15, 101
908, 20, 98
909, 12, 84
910, 16, 68
911, 11, 82
912, 15, 93
913, 4, 99
914, 16, 91
915, 17, 98
916, 11, 90
917, 13, 89
918, 12, 97
919, 17, 108
920, 17, 65
921, 15, 84
922, 17, 97
923, 19, 77
924, 13, 95
925, 21, 96
926, 16, 92
927, 17, 90
928, 23, 101
929, 19, 79
930, 21, 94
931, 10, 89
932, 9, 93
933, 14, 86
934, 16, 84
935, 17, 105
936, 16, 83
937, 16, 81
938, 15, 88
939, 16, 95
940, 9, 86
941, 17, 87
942, 14, 100
943, 12, 85
944, 16, 78
945, 13, 87
946, 18, 95
947, 14, 88
948, 20, 80
949, 22, 98
950, 21, 104
951, 8, 90
952, 16, 91
953, 14, 85
954, 14, 100
955, 22, 79
956, 14, 106
957, 16, 99
958, 18, 105
959, 14, 90
960, 14, 87
961, 15, 94
962, 14, 85
963, 24, 98
964, 10, 85
965, 7, 93
966, 15, 103
967, 10, 89
968, 14, 75
969, 13, 95
970, 17, 98
971, 12, 91
972, 14, 83
973, 15, 80
974, 12, 93
975, 17, 89
976, 10, 92
977, 15, 92
978, 16, 90
979, 10, 84
980, 15, 97
981, 12, 103
982, 13, 96
983, 17, 88
984, 14, 84
985, 16, 86
986, 17, 87
987, 15, 81
988, 18, 91
989, 14, 79
990, 17, 79
991, 17, 69
992, 15, 89
993, 16, 77
994, 16, 92
995, 24, 83
996, 4, 78
997, 13, 83
998, 15, 102
999, 10, 85
1000, 15, 101
1001, 11, 87
1002, 16, 88
1003, 15, 87
1004, 17, 68
1005, 18, 103
1006, 16, 76
1007, 13, 78
1008, 18, 84
1009, 9, 90
1010, 19, 81
1011, 17, 74
1012, 11, 81
1013, 12, 96
1014, 17, 94
1015, 20, 91
1016, 13, 98
1017, 14, 99
1018, 12, 82
1019, 16, 105
1020, 20, 98
1021, 12, 96
1022, 17, 104
1023, 16, 81
1024, 17, 97
1025, 17, 100
1026, 20, 80
1027, 13, 89
1028, 11, 85
1029, 14, 93
1030, 17, 78
1031, 6, 88
1032, 15, 79
1033, 12, 80
1034, 25, 95
1035, 12, 99
1036, 10, 97
1037, 16, 95
1038, 12, 85
1039, 17, 96
1040, 12, 91
1041, 17, 87
1042, 20, 88
1043, 16, 96
1044, 15, 94
1045, 19, 81
1046, 14, 82
1047, 19, 90
1048, 15, 85
1049, 17, 82
1050, 15, 82
1051, 19, 100
1052, 11, 97
1053, 18, 81
1054, 15, 80
1055, 16, 81
1056, 12, 77
1057, 19, 88
1058, 13, 93
1059, 19, 78
1060, 19, 94
1061, 12, 92
1062, 13, 111
1063, 11, 72
1064, 12, 73
1065, 12, 107
1066, 18, 89
1067, 14, 78
1068, 10, 80
1069, 17, 82
1070, 17, 94
1071, 14, 84
1072, 13, 88
1073, 12, 82
1074, 15, 83
1075, 16, 112
1076, 19, 78
1077, 16, 89
1078, 18, 86
1079, 15, 89
1080, 13, 91
1081, 21, 79
1082, 18, 77
1083, 17, 115
1084, 11, 83
1085, 16, 98
1086, 19, 81
1087, 17, 105
1088, 19, 106
1089, 20, 96
1090, 8, 73
1091, 17, 96
1092, 18, 85
1093, 13, 87
1094, 13, 87
1095, 16, 101
1096, 10, 86
1097, 15, 105
1098, 16, 96
1099, 16, 93
1100, 13, 111
1101, 14, 69
1102, 11, 75
1103, 13, 78
1104, 14, 95
1105, 8, 77
1106, 16, 99
1107, 15, 103
1108, 18, 88
1109, 17, 86
1110, 22, 70
1111, 14, 97
1112, 15, 103
1113, 10, 80
1114, 18, 79
1115, 17, 78
1116, 19, 82
1117, 12, 80
1118, 13, 88
1119, 13, 91
1120, 17, 85
1121, 12, 78
1122, 14, 73
1123, 13, 87
1124, 14, 93
1125, 17, 91
1126, 13, 90
1127, 17, 96
1128, 12, 75
1129, 13, 95
1130, 20, 83
1131, 18, 96
1132, 13, 99
1133, 21, 87
1134, 10, 109
1135, 17, 92
1136, 11, 80
1137, 15, 99
1138, 12, 94
1139, 17, 81
1140, 18, 84
1141, 17, 96
1142, 14, 84
1143, 19, 106
1144, 19, 109
1145, 11, 84
1146, 7, 82
1147, 18, 82
1148, 11, 92
1149, 20, 78
1150, 20, 102
1151, 14, 86
1152, 12, 93
1153, 24, 89
1154, 23, 87
1155, 18, 83
1156, 12, 93
1157, 14, 81
1158, 13, 96
1159, 17, 83
1160, 17, 99
1161, 13, 99
1162, 13, 80
1163, 14, 87
1164, 21, 96
1165, 14, 81
1166, 12, 97
1167, 10, 95
1168, 14, 87
1169, 12, 99
1170, 18, 75
1171, 12, 76
1172, 12, 82
1173, 14, 94
1174, 14, 88
1175, 12, 107
1176, 16, 107
1177, 9, 103
1178, 16, 92
1179, 14, 70
1180, 12, 83
1181, 11, 86
1182, 15, 97
1183, 17, 98
1184, 16, 98
1185, 15, 76
1186, 19, 78
1187, 19, 88
1188, 12, 94
1189, 12, 98
1190, 13, 94
1191, 17, 80
1192, 10, 80
1193, 18, 82
1194, 17, 92
1195, 15, 87
1196, 11, 77
1197, 16, 99
1198, 14, 81
1199, 15, 92
1200, 17, 69
1201, 16, 94
1202, 12, 94
1203, 8, 96
1204, 22, 92
1205, 16, 87
1206, 13, 86
1207, 15, 101
1208, 6, 89
1209, 13, 80
1210, 19, 94
1211, 15, 88
1212, 13, 94
1213, 23, 86
1214, 13, 71
1215, 14, 101
1216, 20, 89
1217, 13, 96
1218, 18, 96
1219, 13, 84
1220, 14, 96
1221, 9, 91
1222, 17, 82
1223, 11, 80
1224, 15, 83
1225, 12, 89
1226, 15, 77
1227, 25, 100
1228, 16, 91
1229, 14, 82
1230, 12, 96
1231, 12, 73
1232, 12, 98
1233, 12, 98
1234, 18, 87
1235, 18, 84
1236, 12, 93
1237, 16, 88
1238, 13, 91
1239, 12, 95
1240, 13, 95
1241, 14, 88
1242, 15, 81
1243, 11, 88
1244, 19, 86
1245, 12, 96
1246, 15, 86
1247, 17, 108
1248, 12, 98
1249, 13, 91
1250, 18, 79
1251, 16, 78
1252, 14, 92
1253, 14, 86
1254, 14, 81
1255, 22, 90
1256, 15, 93
1257, 18, 96
1258, 9, 84
1259, 18, 91
1260, 8, 99
1261, 18, 88
1262, 14, 87
1263, 15, 106
1264, 18, 95
1265, 19, 98
1266, 12, 94
1267, 14, 93
1268, 11, 77
1269, 18, 76
1270, 18, 87
1271, 19, 101
1272, 20, 96
1273, 16, 89
1274, 20, 74
1275, 16, 91
1276, 14, 98
1277, 16, 82
1278, 17, 95
1279, 12, 90
1280, 10, 86
1281, 13, 96
1282, 17, 80
1283, 20, 81
1284, 13, 88
1285, 12, 80
1286, 16, 88
1287, 14, 87
1288, 11, 69
1289, 15, 90
1290, 18, 91
1291, 16, 86
1292, 15, 90
1293, 10, 92
1294, 17, 86
1295, 18, 76
1296, 15, 91
1297, 19, 88
1298, 18, 96
1299, 9, 75
1300, 15, 85
1301, 11, 95
1302, 15, 89
1303, 13, 99
1304, 18, 84
1305, 16, 89
1306, 13, 88
1307, 13, 84
1308, 16, 102
1309, 16, 79
1310, 11, 81
1311, 10, 83
1312, 15, 100
1313, 10, 98
1314, 14, 72
1315, 18, 84
1316, 16, 102
1317, 15, 72
1318, 12, 87
1319, 13, 84
1320, 12, 93
1321, 17, 97
1322, 10, 85
1323, 22, 84
1324, 16, 100
1325, 14, 87
1326, 12, 82
1327, 20, 86
1328, 17, 100
1329, 10, 90
1330, 13, 87
1331, 15, 97
1332, 17, 77
1333, 16, 78
1334, 12, 101
1335, 18, 80
1336, 13, 88
1337, 10, 90
