141, 0, 140,140,0
990, 1, 267,407,140
62, 3, 206,613,407
147, 3, 251,864,613
335, 3, 70,934,864
484, 4, 284,1218,934
597, 4, 76,1294,1218
828, 8, 99,1393,1294
170, 10, 7,1400,1393
951, 11, 209,1609,1400
997, 11, 172,1781,1609
234, 12, 237,2018,1781
994, 12, 80,2098,2018
95, 16, 191,2289,2098
800, 16, 289,2578,2289
630, 19, 150,2728,2578
975, 19, 177,2905,2728
195, 20, 212,3117,2905
487, 20, 66,3183,3117
846, 21, 198,3381,3183
323, 22, 197,3578,3381
68, 24, 32,3610,3578
89, 26, 124,3734,3610
113, 27, 253,3987,3734
406, 27, 126,4113,3987
229, 28, 193,4306,4113
7, 30, 193,4499,4306
537, 30, 74,4573,4499
887, 30, 79,4652,4573
270, 32, 144,4796,4652
178, 33, 120,4916,4796
192, 33, 112,5028,4916
340, 33, 256,5284,5028
400, 33, 126,5410,5284
544, 34, 59,5469,5410
797, 34, 30,5499,5469
859, 36, 80,5579,5499
346, 37, 31,5610,5579
869, 38, 241,5851,5610
319, 39, 283,6134,5851
676, 39, 295,6429,6134
776, 41, 46,6475,6429
502, 42, 241,6716,6475
273, 43, 161,6877,6716
314, 44, 90,6967,6877
434, 44, 86,7053,6967
318, 45, 56,7109,7053
529, 45, 136,7245,7109
114, 46, 131,7376,7245
200, 46, 3,7379,7376
540, 46, 160,7539,7379
86, 49, 131,7670,7539
481, 49, 210,7880,7670
428, 50, 270,8150,7880
651, 50, 239,8389,8150
834, 50, 26,8415,8389
232, 51, 249,8664,8415
780, 51, 141,8805,8664
353, 53, 189,8994,8805
297, 57, 64,9058,8994
462, 57, 84,9142,9058
933, 58, 284,9426,9142
979, 58, 21,9447,9426
227, 59, 17,9464,9447
408, 59, 88,9552,9464
919, 59, 214,9766,9552
93, 60, 257,10023,9766
196, 60, 141,10164,10023
286, 60, 222,10386,10164
82, 61, 154,10540,10386
310, 61, 38,10578,10540
886, 61, 163,10741,10578
317, 62, 276,11017,10741
864, 62, 126,11143,11017
917, 62, 218,11361,11143
663, 63, 121,11482,11361
655, 64, 262,11744,11482
157, 65, 71,11815,11744
772, 65, 14,11829,11815
347, 67, 296,12125,11829
121, 68, 247,12372,12125
175, 68, 205,12577,12372
247, 68, 176,12753,12577
401, 68, 272,13025,12753
17, 70, 219,13244,13025
602, 70, 234,13478,13244
477, 71, 159,13637,13478
664, 71, 47,13684,13637
298, 72, 300,13984,13684
527, 72, 269,14253,13984
633, 72, 148,14401,14253
888, 72, 42,14443,14401
214, 73, 30,14473,14443
65, 74, 267,14740,14473
478, 74, 71,14811,14740
819, 74, 83,14894,14811
265, 76, 87,14981,14894
292, 76, 169,15150,14981
357, 76, 42,15192,15150
464, 76, 234,15426,15192
603, 76, 153,15579,15426
55, 77, 247,15826,15579
868, 77, 122,15948,15826
261, 82, 130,16078,15948
420, 84, 249,16327,16078
514, 84, 289,16616,16327
521, 84, 235,16851,16616
29, 85, 53,16904,16851
952, 85, 81,16985,16904
145, 86, 72,17057,16985
815, 87, 162,17219,17057
594, 88, 188,17407,17219
796, 88, 110,17517,17407
120, 89, 118,17635,17517
914, 89, 138,17773,17635
976, 90, 29,17802,17773
512, 91, 47,17849,17802
31, 93, 265,18114,17849
103, 94, 14,18128,18114
156, 94, 81,18209,18128
586, 94, 267,18476,18209
956, 94, 181,18657,18476
269, 95, 138,18795,18657
382, 96, 233,19028,18795
669, 96, 201,19229,19028
495, 100, 58,19287,19229
710, 101, 36,19323,19287
646, 104, 234,19557,19323
618, 106, 96,19653,19557
667, 106, 135,19788,19653
447, 107, 192,19980,19788
460, 107, 125,20105,19980
807, 107, 227,20332,20105
140, 108, 32,20364,20332
424, 108, 73,20437,20364
906, 109, 293,20730,20437
61, 110, 161,20891,20730
858, 110, 102,20993,20891
63, 112, 114,21107,20993
392, 112, 114,21221,21107
903, 112, 31,21252,21221
891, 113, 86,21338,21252
567, 117, 136,21474,21338
740, 117, 185,21659,21474
107, 119, 146,21805,21659
928, 119, 42,21847,21805
388, 120, 251,22098,21847
554, 120, 74,22172,22098
708, 120, 224,22396,22172
775, 120, 41,22437,22396
761, 121, 40,22477,22437
188, 122, 69,22546,22477
341, 122, 271,22817,22546
912, 123, 188,23005,22817
580, 124, 92,23097,23005
189, 125, 10,23107,23097
531, 125, 232,23339,23107
960, 125, 70,23409,23339
294, 126, 117,23526,23409
703, 127, 136,23662,23526
778, 127, 103,23765,23662
19, 128, 297,24062,23765
513, 128, 5,24067,24062
349, 131, 252,24319,24067
423, 131, 65,24384,24319
334, 132, 87,24471,24384
383, 132, 30,24501,24471
866, 132, 56,24557,24501
969, 133, 37,24594,24557
37, 134, 195,24789,24594
701, 135, 54,24843,24789
44, 136, 206,25049,24843
343, 136, 261,25310,25049
12, 137, 289,25599,25310
534, 137, 278,25877,25599
146, 139, 204,26081,25877
266, 139, 126,26207,26081
326, 141, 177,26384,26207
177, 142, 198,26582,26384
9, 146, 104,26686,26582
949, 146, 146,26832,26686
871, 149, 177,27009,26832
231, 152, 118,27127,27009
325, 152, 151,27278,27127
904, 153, 37,27315,27278
336, 155, 203,27518,27315
939, 156, 262,27780,27518
419, 157, 40,27820,27780
934, 157, 268,28088,27820
248, 158, 224,28312,28088
393, 159, 262,28574,28312
767, 159, 187,28761,28574
436, 160, 244,29005,28761
613, 160, 165,29170,29005
230, 161, 176,29346,29170
628, 163, 217,29563,29346
257, 165, 241,29804,29563
851, 165, 57,29861,29804
589, 167, 143,30004,29861
683, 167, 85,30089,30004
715, 167, 7,30096,30089
25, 168, 209,30305,30096
510, 168, 286,30591,30305
176, 170, 171,30762,30591
500, 171, 236,30998,30762
895, 171, 37,31035,30998
116, 173, 238,31273,31035
235, 174, 166,31439,31273
753, 175, 23,31462,31439
16, 176, 270,31732,31462
732, 176, 270,32002,31732
123, 177, 21,32023,32002
707, 177, 84,32107,32023
855, 178, 72,32179,32107
324, 179, 89,32268,32179
402, 179, 277,32545,32268
946, 179, 152,32697,32545
425, 182, 285,32982,32697
299, 184, 260,33242,32982
104, 185, 233,33475,33242
471, 185, 8,33483,33475
799, 188, 293,33776,33483
442, 189, 130,33906,33776
629, 189, 28,33934,33906
712, 191, 25,33959,33934
344, 192, 65,34024,33959
639, 193, 181,34205,34024
27, 194, 80,34285,34205
259, 194, 67,34352,34285
489, 194, 48,34400,34352
631, 194, 144,34544,34400
918, 197, 27,34571,34544
849, 198, 207,34778,34571
173, 199, 146,34924,34778
937, 200, 250,35174,34924
108, 203, 176,35350,35174
118, 203, 260,35610,35350
504, 203, 206,35816,35610
148, 206, 115,35931,35816
536, 210, 4,35935,35931
73, 212, 269,36204,35935
453, 213, 203,36407,36204
920, 214, 44,36451,36407
282, 216, 140,36591,36451
448, 217, 16,36607,36591
78, 218, 25,36632,36607
276, 219, 269,36901,36632
413, 219, 38,36939,36901
198, 220, 288,37227,36939
459, 220, 300,37527,37227
677, 220, 158,37685,37527
40, 221, 191,37876,37685
532, 221, 281,38157,37876
995, 221, 296,38453,38157
79, 223, 131,38584,38453
172, 223, 125,38709,38584
668, 223, 179,38888,38709
456, 224, 275,39163,38888
700, 226, 185,39348,39163
751, 226, 183,39531,39348
30, 227, 52,39583,39531
626, 227, 80,39663,39583
171, 229, 23,39686,39663
686, 231, 112,39798,39686
615, 232, 144,39942,39798
272, 233, 30,39972,39942
23, 235, 7,39979,39972
190, 237, 250,40229,39979
658, 237, 257,40486,40229
786, 237, 9,40495,40486
410, 239, 146,40641,40495
841, 239, 71,40712,40641
204, 240, 232,40944,40712
233, 240, 12,40956,40944
725, 244, 265,41221,40956
810, 244, 62,41283,41221
660, 245, 23,41306,41283
925, 245, 198,41504,41306
986, 245, 168,41672,41504
193, 248, 113,41785,41672
201, 248, 269,42054,41785
289, 249, 139,42193,42054
445, 251, 98,42291,42193
890, 252, 73,42364,42291
128, 253, 88,42452,42364
338, 253, 132,42584,42452
837, 254, 153,42737,42584
966, 254, 297,43034,42737
932, 257, 136,43170,43034
515, 258, 243,43413,43170
305, 259, 148,43561,43413
407, 259, 237,43798,43561
507, 261, 116,43914,43798
519, 264, 176,44090,43914
48, 267, 86,44176,44090
607, 269, 230,44406,44176
721, 269, 139,44545,44406
446, 270, 284,44829,44545
243, 271, 78,44907,44829
627, 272, 296,45203,44907
838, 272, 147,45350,45203
573, 273, 139,45489,45350
153, 275, 276,45765,45489
206, 275, 42,45807,45765
492, 275, 144,45951,45807
245, 276, 105,46056,45951
365, 276, 265,46321,46056
877, 276, 278,46599,46321
33, 277, 42,46641,46599
212, 278, 263,46904,46641
617, 278, 19,46923,46904
638, 278, 92,47015,46923
783, 279, 3,47018,47015
216, 280, 264,47282,47018
283, 280, 284,47566,47282
293, 280, 293,47859,47566
520, 280, 170,48029,47859
34, 282, 210,48239,48029
798, 285, 230,48469,48239
450, 287, 80,48549,48469
681, 288, 275,48824,48549
662, 289, 256,49080,48824
15, 291, 257,49337,49080
637, 291, 175,49512,49337
467, 292, 230,49742,49512
696, 292, 157,49899,49742
787, 293, 281,50180,49899
373, 296, 86,50266,50180
155, 297, 148,50414,50266
444, 299, 92,50506,50414
802, 299, 259,50765,50506
582, 300, 267,51032,50765
572, 301, 205,51237,51032
983, 302, 101,51338,51237
735, 303, 258,51596,51338
351, 304, 202,51798,51596
698, 304, 210,52008,51798
854, 304, 137,52145,52008
873, 304, 232,52377,52145
69, 305, 286,52663,52377
878, 305, 105,52768,52663
197, 306, 237,53005,52768
463, 306, 258,53263,53005
640, 306, 218,53481,53263
220, 308, 188,53669,53481
225, 308, 121,53790,53669
505, 308, 160,53950,53790
832, 308, 179,54129,53950
469, 310, 284,54413,54129
817, 310, 276,54689,54413
779, 311, 41,54730,54689
863, 311, 238,54968,54730
814, 312, 99,55067,54968
268, 313, 76,55143,55067
791, 314, 68,55211,55143
42, 315, 298,55509,55211
727, 316, 243,55752,55509
437, 317, 105,55857,55752
98, 320, 113,55970,55857
551, 320, 43,56013,55970
552, 321, 254,56267,56013
764, 321, 107,56374,56267
525, 322, 145,56519,56374
468, 324, 29,56548,56519
879, 324, 13,56561,56548
905, 324, 117,56678,56561
881, 326, 13,56691,56678
422, 327, 83,56774,56691
614, 327, 20,56794,56774
835, 327, 238,57032,56794
187, 329, 283,57315,57032
482, 329, 281,57596,57315
11, 331, 108,57704,57596
672, 331, 132,57836,57704
553, 333, 49,57885,57836
2, 334, 136,58021,57885
503, 334, 270,58291,58021
605, 334, 287,58578,58291
372, 335, 109,58687,58578
390, 335, 253,58940,58687
563, 337, 186,59126,58940
371, 340, 39,59165,59126
785, 340, 294,59459,59165
643, 341, 201,59660,59459
441, 343, 42,59702,59660
963, 343, 181,59883,59702
543, 344, 192,60075,59883
645, 344, 82,60157,60075
432, 348, 157,60314,60157
862, 349, 92,60406,60314
47, 350, 193,60599,60406
399, 350, 54,60653,60599
913, 350, 215,60868,60653
566, 351, 50,60918,60868
105, 352, 299,61217,60918
218, 353, 45,61262,61217
982, 353, 166,61428,61262
112, 354, 124,61552,61428
415, 354, 31,61583,61552
880, 354, 46,61629,61583
182, 355, 119,61748,61629
856, 356, 103,61851,61748
811, 357, 184,62035,61851
938, 358, 5,62040,62035
438, 359, 52,62092,62040
875, 360, 193,62285,62092
522, 361, 177,62462,62285
528, 362, 236,62698,62462
967, 362, 127,62825,62698
106, 363, 203,63028,62825
370, 365, 53,63081,63028
661, 365, 134,63215,63081
124, 366, 62,63277,63215
679, 367, 239,63516,63277
81, 369, 131,63647,63516
164, 369, 248,63895,63647
417, 369, 222,64117,63895
650, 370, 230,64347,64117
719, 370, 272,64619,64347
789, 370, 182,64801,64619
823, 370, 141,64942,64801
973, 370, 242,65184,64942
771, 371, 201,65385,65184
998, 371, 13,65398,65385
36, 374, 87,65485,65398
619, 375, 106,65591,65485
443, 378, 149,65740,65591
117, 379, 267,66007,65740
930, 379, 282,66289,66007
680, 382, 165,66454,66289
901, 382, 165,66619,66454
208, 384, 133,66752,66619
284, 384, 291,67043,66752
974, 384, 70,67113,67043
279, 385, 165,67278,67113
644, 385, 96,67374,67278
911, 386, 231,67605,67374
285, 387, 56,67661,67605
889, 387, 211,67872,67661
412, 388, 81,67953,67872
795, 388, 288,68241,67953
431, 389, 211,68452,68241
154, 390, 124,68576,68452
935, 390, 173,68749,68576
792, 391, 109,68858,68749
64, 392, 271,69129,68858
221, 392, 283,69412,69129
929, 393, 291,69703,69412
56, 396, 148,69851,69703
959, 397, 221,70072,69851
70, 398, 228,70300,70072
115, 399, 263,70563,70300
736, 399, 118,70681,70563
354, 400, 106,70787,70681
599, 403, 34,70821,70787
300, 405, 296,71117,70821
150, 407, 199,71316,71117
606, 407, 214,71530,71316
808, 408, 139,71669,71530
240, 409, 262,71931,71669
367, 409, 272,72203,71931
908, 411, 144,72347,72203
74, 413, 139,72486,72347
427, 413, 170,72656,72486
756, 413, 285,72941,72656
750, 414, 156,73097,72941
773, 414, 203,73300,73097
253, 415, 41,73341,73300
557, 419, 42,73383,73341
249, 420, 232,73615,73383
523, 420, 164,73779,73615
479, 421, 52,73831,73779
759, 421, 26,73857,73831
687, 422, 124,73981,73857
830, 422, 165,74146,73981
867, 422, 110,74256,74146
90, 423, 164,74420,74256
578, 423, 111,74531,74420
674, 423, 279,74810,74531
191, 425, 102,74912,74810
591, 425, 144,75056,74912
641, 425, 250,75306,75056
827, 425, 17,75323,75306
991, 425, 103,75426,75323
885, 426, 195,75621,75426
758, 428, 159,75780,75621
39, 429, 31,75811,75780
670, 429, 222,76033,75811
377, 430, 153,76186,76033
711, 430, 16,76202,76186
498, 431, 180,76382,76202
739, 431, 70,76452,76382
695, 432, 36,76488,76452
892, 433, 6,76494,76488
488, 436, 101,76595,76494
970, 436, 209,76804,76595
440, 437, 243,77047,76804
962, 437, 59,77106,77047
647, 438, 197,77303,77106
665, 438, 176,77479,77303
717, 440, 155,77634,77479
132, 441, 138,77772,77634
134, 443, 126,77898,77772
291, 443, 17,77915,77898
894, 444, 220,78135,77915
311, 445, 296,78431,78135
853, 445, 213,78644,78431
548, 446, 122,78766,78644
584, 446, 35,78801,78766
429, 447, 139,78940,78801
924, 447, 4,78944,78940
691, 448, 217,79161,78944
741, 448, 18,79179,79161
981, 448, 134,79313,79179
152, 449, 281,79594,79313
524, 449, 262,79856,79594
757, 449, 98,79954,79856
907, 450, 184,80138,79954
977, 450, 18,80156,80138
306, 451, 54,80210,80156
774, 451, 173,80383,80210
321, 452, 141,80524,80383
131, 453, 147,80671,80524
569, 453, 193,80864,80671
671, 453, 25,80889,80864
6, 454, 88,80977,80889
396, 456, 198,81175,80977
749, 456, 169,81344,81175
583, 457, 151,81495,81344
455, 459, 2,81497,81495
803, 461, 187,81684,81497
100, 463, 231,81915,81684
32, 465, 167,82082,81915
263, 465, 74,82156,82082
92, 466, 229,82385,82156
550, 466, 85,82470,82385
210, 468, 30,82500,82470
788, 469, 157,82657,82500
722, 470, 9,82666,82657
694, 471, 138,82804,82666
844, 471, 262,83066,82804
72, 475, 4,83070,83066
896, 476, 185,83255,83070
215, 477, 28,83283,83255
416, 478, 43,83326,83283
678, 479, 143,83469,83326
46, 480, 229,83698,83469
601, 480, 53,83751,83698
768, 480, 146,83897,83751
944, 480, 225,84122,83897
54, 482, 122,84244,84122
35, 483, 16,84260,84244
203, 484, 46,84306,84260
3, 485, 241,84547,84306
143, 486, 233,84780,84547
927, 487, 263,85043,84780
169, 488, 33,85076,85043
556, 488, 35,85111,85076
743, 488, 87,85198,85111
21, 489, 54,85252,85198
526, 489, 240,85492,85252
433, 490, 129,85621,85492
202, 491, 272,85893,85621
327, 492, 287,86180,85893
593, 492, 152,86332,86180
97, 493, 285,86617,86332
122, 495, 57,86674,86617
125, 495, 20,86694,86674
454, 496, 20,86714,86694
560, 496, 120,86834,86714
539, 497, 267,87101,86834
984, 497, 195,87296,87101
610, 498, 135,87431,87296
94, 499, 141,87572,87431
260, 499, 163,87735,87572
101, 500, 130,87865,87735
847, 501, 74,87939,87865
950, 501, 128,88067,87939
363, 503, 71,88138,88067
562, 503, 280,88418,88138
364, 506, 141,88559,88418
909, 507, 24,88583,88559
724, 508, 143,88726,88583
277, 509, 253,88979,88726
52, 512, 151,89130,88979
511, 514, 52,89182,89130
763, 514, 49,89231,89182
219, 515, 49,89280,89231
689, 515, 136,89416,89280
777, 515, 158,89574,89416
729, 516, 233,89807,89574
449, 517, 5,89812,89807
825, 518, 36,89848,89812
391, 519, 108,89956,89848
766, 519, 80,90036,89956
458, 520, 96,90132,90036
24, 521, 114,90246,90132
831, 521, 87,90333,90246
307, 522, 291,90624,90333
883, 522, 104,90728,90624
461, 523, 37,90765,90728
931, 523, 287,91052,90765
499, 524, 77,91129,91052
167, 525, 90,91219,91129
509, 525, 57,91276,91219
151, 526, 107,91383,91276
256, 526, 19,91402,91383
80, 527, 32,91434,91402
241, 528, 52,91486,91434
361, 528, 144,91630,91486
398, 528, 198,91828,91630
733, 531, 291,92119,91828
598, 532, 225,92344,92119
861, 533, 51,92395,92344
472, 534, 284,92679,92395
577, 535, 124,92803,92679
745, 536, 252,93055,92803
574, 537, 269,93324,93055
824, 538, 132,93456,93324
730, 539, 222,93678,93456
1000, 539, 155,93833,93678
971, 541, 215,94048,93833
337, 542, 229,94277,94048
813, 543, 188,94465,94277
404, 544, 4,94469,94465
612, 544, 220,94689,94469
954, 544, 183,94872,94689
130, 545, 73,94945,94872
315, 545, 116,95061,94945
947, 545, 149,95210,95061
980, 547, 51,95261,95210
845, 548, 256,95517,95261
985, 549, 203,95720,95517
494, 551, 248,95968,95720
910, 551, 244,96212,95968
403, 553, 246,96458,96212
575, 553, 247,96705,96458
836, 556, 28,96733,96705
706, 557, 113,96846,96733
451, 558, 147,96993,96846
296, 559, 68,97061,96993
746, 559, 104,97165,97061
41, 560, 130,97295,97165
362, 560, 243,97538,97295
409, 561, 180,97718,97538
199, 562, 155,97873,97718
816, 562, 157,98030,97873
211, 563, 261,98291,98030
620, 564, 130,98421,98291
965, 565, 237,98658,98421
378, 566, 260,98918,98658
943, 566, 33,98951,98918
921, 567, 134,99085,98951
331, 569, 238,99323,99085
546, 569, 215,99538,99323
558, 569, 243,99781,99538
657, 570, 68,99849,99781
275, 571, 298,100147,99849
900, 571, 140,100287,100147
993, 573, 132,100419,100287
723, 574, 176,100595,100419
570, 575, 83,100678,100595
958, 575, 258,100936,100678
332, 576, 267,101203,100936
209, 578, 20,101223,101203
490, 578, 43,101266,101223
274, 579, 200,101466,101266
542, 582, 204,101670,101466
355, 584, 204,101874,101670
316, 586, 110,101984,101874
592, 588, 87,102071,101984
692, 589, 59,102130,102071
239, 590, 109,102239,102130
690, 590, 202,102441,102239
87, 591, 55,102496,102441
246, 592, 58,102554,102496
162, 594, 234,102788,102554
812, 594, 233,103021,102788
1, 595, 89,103110,103021
941, 595, 33,103143,103110
174, 596, 31,103174,103143
67, 598, 155,103329,103174
127, 598, 206,103535,103329
506, 601, 125,103660,103535
874, 601, 176,103836,103660
144, 602, 102,103938,103836
608, 605, 1,103939,103938
742, 605, 217,104156,103939
180, 606, 250,104406,104156
470, 606, 85,104491,104406
160, 612, 69,104560,104491
709, 614, 226,104786,104560
421, 615, 34,104820,104786
926, 615, 220,105040,104820
255, 616, 186,105226,105040
430, 616, 44,105270,105226
634, 617, 44,105314,105270
656, 617, 251,105565,105314
820, 619, 246,105811,105565
250, 620, 254,106065,105811
818, 620, 244,106309,106065
475, 621, 296,106605,106309
604, 622, 137,106742,106605
329, 623, 136,106878,106742
45, 624, 91,106969,106878
57, 624, 146,107115,106969
271, 624, 161,107276,107115
312, 624, 138,107414,107276
718, 624, 104,107518,107414
555, 625, 143,107661,107518
596, 625, 85,107746,107661
135, 627, 73,107819,107746
374, 627, 237,108056,107819
328, 630, 243,108299,108056
801, 630, 157,108456,108299
884, 630, 234,108690,108456
893, 630, 53,108743,108690
395, 632, 248,108991,108743
585, 632, 176,109167,108991
621, 633, 102,109269,109167
790, 633, 81,109350,109269
50, 634, 244,109594,109350
84, 634, 146,109740,109594
754, 634, 187,109927,109740
770, 634, 99,110026,109927
485, 637, 289,110315,110026
493, 637, 60,110375,110315
457, 638, 1,110376,110375
51, 640, 15,110391,110376
320, 641, 7,110398,110391
466, 642, 293,110691,110398
119, 643, 44,110735,110691
533, 643, 227,110962,110735
281, 645, 186,111148,110962
734, 645, 204,111352,111148
964, 645, 62,111414,111352
996, 646, 250,111664,111414
342, 647, 300,111964,111664
999, 647, 106,112070,111964
435, 648, 298,112368,112070
473, 649, 20,112388,112368
348, 650, 30,112418,112388
822, 650, 55,112473,112418
623, 653, 147,112620,112473
452, 655, 185,112805,112620
530, 655, 27,112832,112805
872, 655, 99,112931,112832
129, 656, 125,113056,112931
213, 657, 21,113077,113056
483, 658, 74,113151,113077
755, 658, 272,113423,113151
163, 660, 113,113536,113423
936, 660, 23,113559,113536
142, 661, 232,113791,113559
194, 661, 230,114021,113791
278, 661, 95,114116,114021
632, 661, 94,114210,114116
53, 663, 39,114249,114210
541, 663, 214,114463,114249
697, 663, 200,114663,114463
842, 663, 7,114670,114663
8, 664, 236,114906,114670
149, 666, 159,115065,114906
648, 666, 263,115328,115065
988, 666, 72,115400,115328
386, 668, 16,115416,115400
948, 668, 201,115617,115416
705, 669, 248,115865,115617
782, 669, 92,115957,115865
159, 670, 156,116113,115957
183, 670, 211,116324,116113
75, 671, 232,116556,116324
652, 671, 17,116573,116556
179, 673, 73,116646,116573
840, 674, 210,116856,116646
942, 675, 172,117028,116856
611, 676, 80,117108,117028
685, 676, 258,117366,117108
720, 676, 81,117447,117366
559, 677, 91,117538,117447
654, 678, 114,117652,117538
18, 682, 136,117788,117652
474, 682, 259,118047,117788
516, 683, 31,118078,118047
517, 683, 40,118118,118078
161, 684, 202,118320,118118
185, 686, 196,118516,118320
389, 686, 194,118710,118516
501, 688, 23,118733,118710
635, 688, 85,118818,118733
714, 688, 50,118868,118818
99, 689, 93,118961,118868
673, 691, 148,119109,118961
85, 694, 103,119212,119109
769, 694, 37,119249,119212
922, 694, 290,119539,119249
384, 695, 7,119546,119539
738, 695, 52,119598,119546
102, 697, 181,119779,119598
352, 697, 204,119983,119779
688, 697, 296,120279,119983
576, 698, 188,120467,120279
369, 699, 36,120503,120467
826, 700, 124,120627,120503
165, 701, 185,120812,120627
358, 702, 250,121062,120812
805, 706, 103,121165,121062
987, 706, 67,121232,121165
77, 707, 55,121287,121232
301, 710, 171,121458,121287
653, 710, 151,121609,121458
10, 713, 262,121871,121609
237, 713, 10,121881,121871
579, 713, 176,122057,121881
809, 715, 137,122194,122057
5, 716, 131,122325,122194
262, 718, 104,122429,122325
850, 719, 272,122701,122429
957, 719, 211,122912,122701
737, 720, 265,123177,122912
915, 720, 69,123246,123177
96, 721, 145,123391,123246
587, 721, 79,123470,123391
806, 721, 179,123649,123470
955, 721, 256,123905,123649
784, 722, 275,124180,123905
882, 723, 196,124376,124180
387, 724, 151,124527,124376
693, 725, 141,124668,124527
876, 727, 217,124885,124668
366, 728, 79,124964,124885
642, 728, 9,124973,124964
258, 731, 51,125024,124973
380, 732, 242,125266,125024
897, 732, 100,125366,125266
465, 735, 249,125615,125366
821, 735, 228,125843,125615
184, 736, 295,126138,125843
624, 736, 155,126293,126138
616, 738, 174,126467,126293
496, 739, 257,126724,126467
899, 740, 96,126820,126724
439, 742, 270,127090,126820
649, 742, 26,127116,127090
223, 744, 90,127206,127116
251, 744, 181,127387,127206
476, 746, 211,127598,127387
181, 747, 282,127880,127598
414, 747, 146,128026,127880
538, 747, 16,128042,128026
916, 747, 279,128321,128042
205, 749, 294,128615,128321
308, 750, 95,128710,128615
356, 750, 66,128776,128710
60, 753, 167,128943,128776
288, 753, 216,129159,128943
426, 753, 287,129446,129159
744, 753, 157,129603,129446
726, 754, 255,129858,129603
848, 754, 204,130062,129858
379, 758, 190,130252,130062
762, 758, 110,130362,130252
843, 759, 222,130584,130362
972, 759, 55,130639,130584
287, 761, 150,130789,130639
682, 761, 184,130973,130789
109, 764, 82,131055,130973
280, 765, 181,131236,131055
290, 765, 11,131247,131236
568, 765, 68,131315,131247
166, 767, 284,131599,131315
207, 767, 228,131827,131599
839, 769, 227,132054,131827
804, 770, 248,132302,132054
699, 772, 142,132444,132302
716, 776, 145,132589,132444
857, 776, 51,132640,132589
375, 777, 45,132685,132640
765, 777, 234,132919,132685
675, 778, 127,133046,132919
865, 778, 259,133305,133046
110, 780, 51,133356,133305
236, 780, 173,133529,133356
304, 781, 220,133749,133529
66, 782, 269,134018,133749
609, 782, 255,134273,134018
760, 783, 27,134300,134273
961, 783, 64,134364,134300
126, 784, 160,134524,134364
545, 784, 151,134675,134524
486, 786, 161,134836,134675
508, 788, 27,134863,134836
309, 789, 37,134900,134863
302, 790, 49,134949,134900
4, 792, 58,135007,134949
860, 792, 144,135151,135007
333, 796, 118,135269,135151
381, 796, 217,135486,135269
38, 797, 79,135565,135486
22, 798, 104,135669,135565
133, 799, 125,135794,135669
565, 799, 134,135928,135794
71, 801, 29,135957,135928
397, 802, 71,136028,135957
111, 804, 270,136298,136028
345, 804, 293,136591,136298
945, 804, 209,136800,136591
940, 805, 300,137100,136800
136, 806, 124,137224,137100
571, 806, 102,137326,137224
394, 807, 229,137555,137326
418, 807, 126,137681,137555
13, 808, 134,137815,137681
28, 808, 197,138012,137815
76, 808, 279,138291,138012
385, 808, 177,138468,138291
600, 808, 72,138540,138468
535, 809, 130,138670,138540
731, 809, 273,138943,138670
26, 810, 276,139219,138943
330, 811, 36,139255,139219
636, 811, 129,139384,139255
953, 812, 228,139612,139384
158, 813, 10,139622,139612
168, 813, 155,139777,139622
595, 813, 245,140022,139777
794, 813, 127,140149,140022
747, 814, 144,140293,140149
49, 815, 295,140588,140293
411, 815, 94,140682,140588
186, 816, 289,140971,140682
518, 816, 43,141014,140971
267, 818, 1,141015,141014
359, 818, 15,141030,141015
588, 819, 188,141218,141030
752, 819, 180,141398,141218
217, 820, 68,141466,141398
992, 820, 24,141490,141466
91, 821, 242,141732,141490
222, 821, 78,141810,141732
713, 821, 251,142061,141810
350, 822, 76,142137,142061
833, 823, 186,142323,142137
405, 824, 160,142483,142323
793, 825, 63,142546,142483
360, 826, 93,142639,142546
376, 827, 3,142642,142639
898, 829, 163,142805,142642
83, 831, 244,143049,142805
968, 831, 28,143077,143049
702, 833, 121,143198,143077
224, 834, 119,143317,143198
547, 835, 139,143456,143317
242, 836, 145,143601,143456
295, 836, 243,143844,143601
228, 839, 166,144010,143844
254, 840, 55,144065,144010
339, 840, 81,144146,144065
561, 840, 113,144259,144146
549, 843, 136,144395,144259
902, 843, 90,144485,144395
20, 845, 242,144727,144485
139, 845, 93,144820,144727
581, 845, 61,144881,144820
590, 846, 158,145039,144881
829, 847, 298,145337,145039
622, 848, 224,145561,145337
870, 848, 157,145718,145561
564, 849, 299,146017,145718
238, 851, 20,146037,146017
368, 852, 49,146086,146037
989, 852, 239,146325,146086
666, 854, 28,146353,146325
252, 855, 264,146617,146353
491, 856, 134,146751,146617
497, 856, 293,147044,146751
659, 856, 212,147256,147044
88, 857, 295,147551,147256
704, 858, 146,147697,147551
58, 859, 152,147849,147697
322, 859, 233,148082,147849
480, 862, 144,148226,148082
684, 862, 78,148304,148226
43, 863, 289,148593,148304
303, 863, 251,148844,148593
748, 863, 79,148923,148844
138, 867, 177,149100,148923
59, 872, 16,149116,149100
264, 873, 205,149321,149116
625, 873, 87,149408,149321
313, 875, 183,149591,149408
781, 875, 124,149715,149591
978, 879, 23,149738,149715
244, 880, 175,149913,149738
226, 882, 247,150160,149913
852, 885, 114,150274,150160
14, 886, 9,150283,150274
137, 886, 300,150583,150283
728, 886, 70,150653,150583
923, 886, 176,150829,150653
