1, 0, 8
2, 4, 5
3, 1, 8
4, 4, 11
5, 1, 15
6, 1, 9
7, 3, 11
8, 2, 16
9, 3, 7
10, 6, 9
11, 4, 17
12, 5, 10
13, 4, 7
14, 3, 11
15, 6, 8
16, 5, 15
17, 0, 6
18, 0, 13
19, 2, 10
20, 1, 11
21, 0, 10
22, 7, 8
23, 5, 5
24, 4, 10
25, 2, 7
26, 3, 9
27, 1, 9
28, 7, 9
29, 8, 5
30, 5, 9
31, 3, 8
32, 0, 10
33, 2, 6
34, 5, 3
35, 3, 19
36, 2, 14
37, 3, 8
38, 4, 8
39, 3, 9
40, 6, 8
41, 2, 9
42, 3, 8
43, 3, 8
44, 4, 17
45, 3, 6
46, 3, 7
47, 0, 7
48, 1, 11
49, 0, 6
50, 2, 12
51, 1, 13
52, 4, 8
53, 2, 8
54, 2, 12
55, 8, 11
56, 3, 6
57, 3, 10
58, 1, 17
59, 3, 16
60, 3, 6
61, 2, 9
62, 2, 10
63, 0, 7
64, 1, 8
65, 4, 13
66, 1, 7
67, 3, 5
68, 4, 7
69, 4, 9
70, 5, 10
71, 1, 5
72, 2, 12
73, 3, 13
74, 3, 10
75, 3, 13
76, 4, 8
77, 2, 8
78, 2, 8
79, 2, 10
80, 3, 15
81, 4, 8
82, 4, 10
83, 5, 20
84, 2, 6
85, 3, 10
86, 6, 9
87, 5, 14
88, 2, 14
89, 4, 14
90, 2, 11
91, 3, 12
92, 1, 5
93, 1, 7
94, 4, 12
95, 3, 12
96, 2, 9
97, 3, 5
98, 1, 10
99, 3, 13
100, 6, 9
101, 1, 7
102, 3, 10
103, 2, 10
104, 1, 8
105, 4, 11
106, 3, 10
107, 2, 6
108, 7, 11
109, 0, 14
110, 6, 10
111, 1, 15
112, 2, 11
113, 5, 12
114, 4, 15
115, 5, 11
116, 4, 14
117, 7, 12
118, 2, 10
119, 3, 10
120, 0, 10
121, 1, 8
122, 1, 5
123, 5, 3
124, 3, 6
125, 2, 9
126, 4, 11
127, 4, 3
128, 3, 7
129, 4, 6
130, 4, 9
131, 5, 5
132, 1, 10
133, 3, 10
134, 1, 11
135, 8, 10
136, 4, 16
137, 3, 14
138, 2, 10
139, 3, 8
140, 2, 7
141, 1, 10
142, 5, 12
143, 4, 9
144, 1, 7
145, 3, 10
146, 8, 8
147, 2, 12
148, 6, 9
149, 5, 11
150, 1, 9
151, 2, 15
152, 2, 15
153, 4, 8
154, 3, 8
155, 2, 8
156, 5, 11
157, 3, 10
158, 2, 12
159, 5, 8
160, 3, 7
161, 5, 5
162, 5, 9
163, 4, 11
164, 2, 14
165, 4, 11
166, 4, 12
167, 7, 12
168, 1, 9
169, 1, 11
170, 0, 16
171, 0, 13
172, 2, 9
173, 5, 8
174, 2, 9
175, 5, 7
176, 4, 13
177, 2, 1
178, 2, 13
179, 2, 12
180, 3, 10
181, 2, 12
182, 4, 12
183, 4, 9
184, 3, 8
185, 2, 16
186, 3, 7
187, 2, 14
188, 2, 6
189, 4, 12
190, 5, 9
191, 4, 21
192, 1, 8
193, 3, 11
194, 2, 7
195, 3, 8
196, 1, 6
197, 3, 9
198, 5, 8
199, 2, 12
200, 3, 8
201, 5, 6
202, 2, 13
203, 6, 6
204, 7, 5
205, 2, 14
206, 6, 8
207, 1, 8
208, 6, 7
209, 3, 9
210, 5, 10
211, 2, 8
212, 3, 3
213, 1, 6
214, 5, 11
215, 3, 9
216, 0, 8
217, 4, 13
218, 2, 7
219, 2, 11
220, 4, 13
221, 4, 10
222, 4, 10
223, 2, 11
224, 6, 10
225, 1, 16
226, 4, 12
227, 7, 12
228, 3, 15
229, 7, 13
230, 2, 14
231, 1, 8
232, 0, 8
233, 4, 7
234, 3, 12
235, 4, 6
236, 3, 6
237, 9, 6
238, 3, 8
239, 2, 13
240, 6, 6
241, 0, 11
242, 3, 11
243, 3, 6
244, 5, 9
245, 2, 11
246, 6, 8
247, 2, 9
248, 4, 13
249, 5, 6
250, 0, 6
251, 3, 11
252, 3, 12
253, 2, 7
254, 1, 10
255, 3, 17
256, 4, 15
257, 3, 9
258, 2, 7
259, 4, 9
260, 4, 9
261, 1, 7
262, 2, 11
263, 5, 9
264, 1, 16
265, 5, 2
266, 4, 7
267, 7, 9
268, 6, 9
269, 4, 8
270, 5, 9
271, 3, 9
272, 5, 4
273, 5, 11
274, 2, 10
275, 4, 7
276, 5, 9
277, 1, 4
278, 3, 17
279, 4, 9
280, 3, 9
281, 1, 17
282, 3, 14
283, 4, 9
284, 2, 10
285, 2, 23
286, 6, 14
287, 2, 9
288, 2, 6
289, 2, 9
290, 6, 12
291, 2, 16
292, 6, 8
293, 2, 9
294, 2, 9
295, 1, 14
296, 1, 14
297, 3, 13
298, 5, 11
299, 5, 20
300, 1, 9
301, 2, 9
302, 2, 7
303, 1, 8
304, 4, 5
305, 2, 9
306, 1, 7
307, 3, 7
308, 1, 18
309, 6, 12
310, 0, 6
311, 0, 8
312, 2, 7
313, 1, 10
314, 2, 9
315, 2, 4
316, 2, 8
317, 4, 10
318, 2, 5
319, 2, 14
320, 3, 12
321, 7, 10
322, 6, 16
323, 2, 8
324, 2, 6
325, 5, 14
326, 6, 7
327, 7, 13
328, 0, 7
329, 4, 9
330, 6, 15
331, 4, 9
332, 4, 10
333, 4, 10
334, 3, 9
335, 1, 16
336, 1, 9
337, 5, 12
338, 0, 9
339, 0, 13
340, 2, 13
341, 2, 11
342, 1, 10
343, 2, 11
344, 2, 15
345, 6, 11
346, 1, 11
347, 4, 5
348, 4, 9
349, 2, 9
350, 4, 10
351, 0, 7
352, 5, 14
353, 1, 7
354, 2, 10
355, 3, 10
356, 4, 9
357, 4, 5
358, 2, 7
359, 2, 5
360, 7, 4
361, 6, 9
362, 3, 4
363, 3, 8
364, 2, 16
365, 4, 11
366, 4, 7
367, 2, 18
368, 2, 11
369, 7, 6
370, 5, 10
371, 3, 10
372, 2, 9
373, 1, 17
374, 1, 16
375, 2, 12
376, 2, 12
377, 3, 19
378, 5, 9
379, 5, 8
380, 3, 11
381, 1, 6
382, 3, 14
383, 3, 8
384, 2, 13
385, 4, 10
386, 3, 8
387, 1, 12
388, 3, 10
389, 3, 5
390, 2, 8
391, 3, 11
392, 3, 11
393, 1, 6
394, 3, 10
395, 1, 7
396, 1, 6
397, 1, 14
398, 5, 19
399, 2, 10
400, 5, 7
401, 3, 10
402, 2, 16
403, 2, 5
404, 3, 6
405, 1, 7
406, 1, 7
407, 5, 9
408, 1, 9
409, 3, 9
410, 3, 8
411, 3, 12
412, 4, 11
413, 4, 7
414, 7, 9
415, 3, 7
416, 0, 21
417, 1, 11
418, 3, 13
419, 3, 11
420, 5, 6
421, 8, 13
422, 5, 9
423, 4, 17
424, 4, 9
425, 3, 18
426, 5, 13
427, 2, 9
428, 3, 9
429, 3, 6
430, 2, 12
431, 3, 13
432, 2, 9
433, 2, 16
434, 3, 11
435, 1, 5
436, 2, 4
437, 3, 10
438, 3, 5
439, 6, 12
440, 5, 14
441, 1, 9
442, 2, 12
443, 4, 6
444, 2, 14
445, 1, 8
446, 4, 11
447, 2, 15
448, 4, 9
449, 3, 11
450, 3, 5
451, 2, 13
452, 3, 13
453, 5, 16
454, 4, 15
455, 2, 8
456, 3, 12
457, 2, 8
458, 4, 17
459, 0, 8
460, 4, 6
461, 1, 10
462, 7, 10
463, 4, 10
464, 2, 10
465, 0, 11
466, 3, 12
467, 1, 8
468, 3, 10
469, 4, 15
470, 2, 15
471, 5, 10
472, 3, 5
473, 4, 6
474, 3, 11
475, 2, 15
476, 1, 7
477, 1, 11
478, 5, 11
479, 0, 9
480, 4, 13
481, 4, 6
482, 3, 17
483, 4, 9
484, 3, 11
485, 1, 8
486, 3, 4
487, 9, 7
488, 2, 7
489, 4, 9
490, 3, 11
491, 3, 7
492, 0, 12
493, 4, 8
494, 1, 4
495, 1, 9
496, 2, 11
497, 2, 7
498, 5, 7
499, 5, 8
500, 3, 11
501, 2, 13
502, 2, 12
503, 2, 10
504, 1, 13
505, 5, 10
506, 0, 12
507, 6, 9
508, 2, 3
509, 1, 10
510, 2, 13
511, 5, 4
512, 2, 9
513, 5, 9
514, 2, 9
515, 3, 8
516, 6, 9
517, 4, 5
518, 1, 8
519, 4, 14
520, 2, 3
521, 4, 6
522, 2, 9
523, 2, 7
524, 3, 11
525, 3, 12
526, 4, 14
527, 6, 6
528, 4, 8
529, 2, 9
530, 3, 5
531, 3, 8
532, 3, 6
533, 4, 12
534, 1, 9
535, 3, 12
536, 4, 9
537, 1, 5
538, 3, 9
539, 0, 9
540, 2, 10
541, 1, 10
542, 1, 7
543, 1, 11
544, 7, 11
545, 3, 14
546, 0, 12
547, 2, 13
548, 1, 10
549, 4, 11
550, 4, 9
551, 4, 13
552, 4, 9
553, 3, 13
554, 1, 11
555, 2, 12
556, 1, 10
557, 2, 14
558, 5, 4
559, 10, 13
560, 1, 8
561, 2, 12
562, 3, 10
563, 4, 4
564, 3, 12
565, 2, 14
566, 1, 9
567, 2, 3
568, 2, 11
569, 3, 13
570, 2, 9
571, 5, 4
572, 6, 7
573, 2, 9
574, 7, 7
575, 3, 10
576, 6, 8
577, 4, 8
578, 5, 8
579, 6, 9
580, 3, 10
581, 1, 15
582, 2, 11
583, 4, 11
584, 2, 6
585, 2, 11
586, 3, 15
587, 1, 11
588, 3, 10
589, 3, 14
590, 4, 14
591, 1, 10
592, 1, 6
593, 3, 9
594, 1, 10
595, 1, 8
596, 2, 10
597, 6, 11
598, 4, 8
599, 1, 7
600, 2, 8
601, 1, 9
602, 2, 11
603, 4, 13
604, 1, 7
605, 2, 8
606, 2, 11
607, 6, 7
608, 3, 7
609, 2, 11
610, 3, 8
611, 4, 9
612, 3, 7
613, 2, 8
614, 0, 10
615, 4, 11
616, 1, 10
617, 6, 12
618, 2, 12
619, 7, 10
620, 3, 14
621, 2, 11
622, 3, 9
623, 7, 10
624, 1, 11
625, 6, 10
626, 2, 13
627, 3, 11
628, 4, 8
629, 1, 11
630, 3, 11
631, 4, 13
632, 5, 13
633, 3, 13
634, 5, 11
635, 1, 10
636, 3, 5
637, 1, 13
638, 4, 6
639, 7, 8
640, 2, 12
641, 5, 13
642, 6, 6
643, 3, 8
644, 2, 9
645, 2, 11
646, 7, 11
647, 4, 8
648, 2, 7
649, 4, 12
650, 9, 6
651, 4, 12
652, 6, 13
653, 1, 5
654, 2, 8
655, 5, 11
656, 5, 19
657, 1, 7
658, 1, 13
659, 5, 11
660, 4, 14
661, 3, 13
662, 3, 10
663, 2, 6
664, 3, 12
665, 3, 10
666, 4, 10
667, 3, 7
668, 4, 16
669, 1, 12
670, 0, 8
671, 2, 8
672, 3, 6
673, 6, 9
674, 4, 16
675, 1, 8
676, 4, 9
677, 4, 9
678, 3, 13
679, 3, 14
680, 3, 2
681, 1, 8
682, 2, 14
683, 2, 11
684, 3, 11
685, 1, 6
686, 1, 6
687, 3, 10
688, 1, 11
689, 3, 13
690, 5, 13
691, 2, 8
692, 7, 9
693, 5, 8
694, 1, 5
695, 4, 11
696, 3, 11
697, 1, 11
698, 1, 7
699, 3, 13
700, 3, 10
701, 0, 10
702, 6, 10
703, 2, 4
704, 3, 9
705, 4, 11
706, 4, 9
707, 3, 6
708, 2, 4
709, 1, 9
710, 7, 6
711, 4, 8
712, 1, 15
713, 2, 4
714, 2, 10
715, 1, 15
716, 3, 12
717, 5, 5
718, 2, 13
719, 3, 4
720, 2, 9
721, 2, 10
722, 7, 8
723, 3, 5
724, 3, 8
725, 7, 7
726, 2, 12
727, 8, 13
728, 3, 9
729, 1, 11
730, 3, 12
731, 4, 6
732, 2, 12
733, 2, 17
734, 6, 11
735, 4, 13
736, 1, 10
737, 2, 10
738, 4, 16
739, 2, 10
740, 1, 9
741, 3, 12
742, 6, 14
743, 3, 13
744, 3, 11
745, 2, 15
746, 2, 10
747, 4, 7
748, 3, 9
749, 4, 16
750, 1, 13
751, 2, 12
752, 5, 12
753, 8, 13
754, 3, 9
755, 3, 12
756, 2, 9
757, 2, 7
758, 5, 6
759, 2, 4
760, 3, 9
761, 1, 8
762, 3, 12
763, 1, 8
764, 2, 10
765, 2, 11
766, 2, 11
767, 3, 18
768, 5, 7
769, 0, 8
770, 1, 6
771, 1, 15
772, 5, 10
773, 3, 11
774, 4, 12
775, 3, 8
776, 7, 13
777, 2, 10
778, 3, 6
779, 2, 7
780, 4, 11
781, 5, 9
782, 1, 9
783, 3, 19
784, 5, 11
785, 2, 11
786, 3, 11
787, 2, 9
788, 0, 12
789, 2, 8
790, 1, 13
791, 0, 7
792, 6, 10
793, 2, 18
794, 2, 8
795, 1, 4
796, 5, 10
797, 5, 12
798, 6, 17
799, 2, 8
800, 0, 13
801, 3, 14
802, 0, 13
803, 4, 10
804, 4, 10
805, 2, 10
806, 5, 8
807, 1, 11
808, 4, 11
809, 2, 4
810, 3, 4
811, 0, 8
812, 2, 12
813, 3, 9
814, 1, 9
815, 3, 13
816, 3, 13
817, 4, 9
818, 1, 7
819, 3, 8
820, 6, 11
821, 3, 12
822, 6, 15
823, 0, 8
824, 2, 8
825, 4, 7
826, 3, 14
827, 5, 11
828, 1, 10
829, 2, 14
830, 1, 12
831, 4, 12
832, 3, 12
833, 3, 10
834, 8, 13
835, 5, 9
836, 4, 8
837, 3, 6
838, 3, 11
839, 3, 8
840, 2, 3
841, 3, 11
842, 0, 11
843, 5, 8
844, 3, 10
845, 6, 14
846, 6, 12
847, 0, 6
848, 3, 14
849, 5, 14
850, 3, 7
851, 2, 9
852, 5, 10
853, 2, 13
854, 2, 10
855, 2, 9
856, 3, 10
857, 5, 9
858, 6, 15
859, 1, 6
860, 5, 4
861, 3, 11
862, 4, 10
863, 1, 14
864, 3, 10
865, 4, 9
866, 3, 6
867, 3, 14
868, 1, 14
869, 4, 11
870, 1, 14
871, 2, 16
872, 4, 11
873, 4, 13
874, 2, 6
875, 4, 6
876, 5, 17
877, 1, 12
878, 6, 7
879, 3, 12
880, 2, 10
881, 3, 12
882, 4, 15
883, 2, 10
884, 2, 18
885, 2, 7
886, 6, 10
887, 1, 12
888, 0, 7
889, 2, 10
890, 4, 7
891, 4, 6
892, 4, 9
893, 1, 15
894, 3, 13
895, 2, 11
896, 5, 8
897, 7, 10
898, 2, 14
899, 0, 7
900, 1, 13
901, 0, 16
902, 2, 9
903, 3, 10
904, 5, 13
905, 1, 11
906, 1, 14
907, 4, 14
908, 3, 10
909, 2, 9
910, 2, 15
911, 0, 17
912, 3, 17
913, 5, 6
914, 4, 9
915, 4, 11
916, 2, 4
917, 1, 11
918, 4, 6
919, 2, 6
920, 2, 9
921, 8, 5
922, 4, 11
923, 4, 9
924, 4, 7
925, 3, 12
926, 4, 12
927, 1, 12
928, 3, 14
929, 3, 10
930, 1, 7
931, 5, 12
932, 2, 11
933, 2, 9
934, 1, 7
935, 4, 9
936, 1, 9
937, 1, 5
938, 4, 10
939, 1, 7
940, 4, 5
941, 4, 7
942, 2, 5
943, 5, 8
944, 4, 4
945, 2, 12
946, 4, 11
947, 0, 12
948, 3, 9
949, 3, 4
950, 6, 12
951, 3, 8
952, 4, 11
953, 9, 12
954, 3, 14
955, 3, 7
956, 5, 9
957, 5, 12
958, 3, 10
959, 3, 6
960, 2, 14
961, 4, 9
962, 0, 10
963, 0, 10
964, 0, 11
965, 1, 7
966, 1, 9
967, 1, 9
968, 6, 7
969, 3, 12
970, 6, 20
971, 2, 12
972, 4, 7
973, 3, 11
974, 1, 11
975, 3, 5
976, 5, 6
977, 1, 11
978, 2, 11
979, 3, 11
980, 4, 9
981, 5, 9
982, 4, 11
983, 3, 11
984, 3, 7
985, 3, 14
986, 3, 11
987, 6, 12
988, 0, 14
989, 3, 8
990, 4, 7
991, 2, 5
992, 2, 12
993, 1, 9
994, 3, 10
995, 4, 16
996, 5, 9
997, 3, 6
998, 2, 10
999, 2, 10
1000, 4, 9
